{
    "KPlugin": {
        "Description": "Integration with Git and other source control systems",
        "Description[az]": "Git və digər versiyaya nəzarət sistemləri ilə inteqrasiya",
        "Description[ca@valencia]": "Integració amb Git i altres sistemes de control de codi font",
        "Description[ca]": "Integració amb el Git i altres sistemes de control de codi font",
        "Description[cs]": "Integrace s Gitem a jinými verzovacími systémy",
        "Description[de]": "Integration von Git und anderen Versionsverwaltungen für Quelltexte",
        "Description[el]": "Ενσωμάτωση με το Git και με άλλα συστήματα ελέγχου εκδόσεων",
        "Description[en_GB]": "Integration with Git and other source control systems",
        "Description[es]": "Integración con Git y otros sistemas de control de código fuente",
        "Description[eu]": "Git eta beste sorburu kontrolerako sistemekin bateratzea",
        "Description[fi]": "Integrointi Gitiin ja muihin versionhallintajärjestelmiin",
        "Description[fr]": "Intégration avec Git et d'autres systèmes de contrôle de version",
        "Description[hu]": "Integráció a gittel és egyéb nyílt forráskód-kezelő rendszerekkel",
        "Description[ia]": "Integration con Git e altere systema de controlo de fonte",
        "Description[it]": "Integrazione con Git e con altri sistemi di controllo del sorgente",
        "Description[ko]": "Git 및 다른 버전 관리 시스템 통합",
        "Description[nl]": "Integratie met Git en andere controlesystemen voor broncode",
        "Description[pl]": "Współpraca z Git i innymi systemami do zarządzania wersjami",
        "Description[pt]": "Integração com o Git e outros sistemas de controlo de versões",
        "Description[ru]": "Интеграция с Git и другими системами управления кодом",
        "Description[sl]": "Integracija z Git in ostalimi nadzornimi programi za izvorno kodo",
        "Description[sv]": "Integrering med Git och andra källkontrollsystem",
        "Description[tr]": "Git ve diğer sürüm denetim sistemleriyle tümleşim",
        "Description[uk]": "Інтеграція із Git та іншими системами керування кодом",
        "Description[vi]": "Phần tích hợp với Git và các hệ thống quản lí phiên bản khác",
        "Description[x-test]": "xxIntegration with Git and other source control systemsxx",
        "Description[zh_CN]": "与 Git 和其他源代码控制系统集成",
        "Name": "Project Plugin",
        "Name[az]": "Layihə modulu",
        "Name[ca@valencia]": "Connector de projecte",
        "Name[ca]": "Connector de projecte",
        "Name[cs]": "Modul projektu",
        "Name[de]": "Projektmodul",
        "Name[el]": "Πρόσθετο έργων",
        "Name[en_GB]": "Project Plugin",
        "Name[es]": "Complemento de proyectos",
        "Name[eu]": "Proiektuen plugina",
        "Name[fi]": "Projektiliitännäinen",
        "Name[fr]": "Module externe de projet",
        "Name[hu]": "Projekt bővítmény",
        "Name[ia]": "Plug-in de Projecto",
        "Name[it]": "Estensione di progetto",
        "Name[ko]": "프로젝트 플러그인",
        "Name[my]": "ပရောဂျက် ပလပ်ဂင်",
        "Name[nl]": "Projectplug-in",
        "Name[pl]": "Wtyczka projektu",
        "Name[pt]": "'Plugin' de Projectos",
        "Name[pt_BR]": "Plugin de projeto",
        "Name[ru]": "Проекты",
        "Name[sl]": "Vtičnik projekta",
        "Name[sv]": "Projektinsticksprogram",
        "Name[tr]": "Proje Eklentisi",
        "Name[uk]": "Додаток проєктів",
        "Name[vi]": "Phần cài cắm \"dự án\"",
        "Name[x-test]": "xxProject Pluginxx",
        "Name[zh_CN]": "项目插件",
        "ServiceTypes": [
            "KTextEditor/Plugin"
        ]
    }
}
